Dictionary to look up region geographies based on countries used in UN DESA International Migrant Stock. — dict_ims • migest
…
region_a2018
Region grouping used for global chord diagram plots by Abel (2018)

region_ac2022
Region grouping used for global chord diagram plots by Abel and Cohen (2022)

    Source

    The aggregates_correspondence_table_2020_1.xlsx file of United Nations Department of Economic and Social Affairs, Population Division (2020). International Migrant Stock 2020.

    Examples

dict_ims
#> # A tibble: 243 × 18
#>    name      iso3c iso3n name_short ims   region region_sub region_sdg region_wb
#>    <chr>     <chr> <dbl> <chr>      <lgl> <chr>  <chr>      <chr>      <chr>    
#>  1 Burundi   BDI     108 Burundi    TRUE  Africa Eastern A… Sub-Sahar… Sub-Saha…
#>  2 Comoros   COM     174 Comoros    TRUE  Africa Eastern A… Sub-Sahar… Sub-Saha…
#>  3 Djibouti  DJI     262 Djibouti   TRUE  Africa Eastern A… Sub-Sahar… Middle E…
#>  4 Eritrea   ERI     232 Eritrea    TRUE  Africa Eastern A… Sub-Sahar… Sub-Saha…
#>  5 Ethiopia  ETH     231 Ethiopia   TRUE  Africa Eastern A… Sub-Sahar… Sub-Saha…
#>  6 Ethiopia… ETI     231 Ethiopia … FALSE Africa Eastern A… Sub-Sahar… Sub-Saha…
#>  7 Kenya     KEN     404 Kenya      TRUE  Africa Eastern A… Sub-Sahar… Sub-Saha…
#>  8 Madagasc… MDG     450 Madagascar TRUE  Africa Eastern A… Sub-Sahar… Sub-Saha…
#>  9 Malawi    MWI     454 Malawi     TRUE  Africa Eastern A… Sub-Sahar… Sub-Saha…
#> 10 Mauritius MUS     480 Mauritius  TRUE  Africa Eastern A… Sub-Sahar… Sub-Saha…
#> # ℹ 233 more rows
#> # ℹ 9 more variables: un_develop <chr>, wb_income <chr>,
#> #   wb_income_detail <chr>, lldc <lgl>, sids <lgl>, region_as2014 <chr>,
#> #   region_sab2014 <chr>, region_a2018 <chr>, region_ac2022 <chr>
…
