Chord diagram for directional origin-destination data — mig_chord • migest
…
Fitting the sector labels on the page is usually the most time consuming task. Use the different label options, including line breaks, label_nudge, track height in preAllocateTracks and font sizes in label_size and axis_size to find the best fit. If none of the label options produce desirable results, plot your own using circlize::circos.text having set no_labels = TRUE and clear_circos_par = FALSE.

    Examples

library(dplyr)
library(tidyr)
library(tibble)
library(countrycode)
#' # download Abel and Cohen (2019) estimates
f <- url("https://ndownloader.figshare.com/files/38016762") %>%
  read.csv() %>%
  as_tibble()
f
#> # A tibble: 307,833 × 9
#>    year0 orig  dest  sd_drop_neg sd_rev_neg mig_rate da_min_open da_min_closed
#>    <int> <chr> <chr>       <int>      <int>    <dbl>       <dbl>         <dbl>
#>  1  1990 BDI   BDI             0          0      0          0               0 
#>  2  1990 COM   BDI             0          0      0          0               0 
#>  3  1990 DJI   BDI             0          0      0          0               0 
#>  4  1990 ERI   BDI             0          0      0          0               0 
#>  5  1990 ETH   BDI             0          0      0          0               0 
#>  6  1990 KEN   BDI            30         30     75.7       51.3           207.
#>  7  1990 MDG   BDI             0          0      0          0.03            0 
#>  8  1990 MWI   BDI             0          0      0          0               0 
#>  9  1990 MUS   BDI             0          0      0          0.06            0 
#> 10  1990 MYT   BDI             0          0      0          0               0 
#> # ℹ 307,823 more rows
#> # ℹ 1 more variable: da_pb_closed <dbl>

# use dictionary to get region to region flows
d <- f %>%
  mutate(
    orig = countrycode(sourcevar = orig, custom_dict = dict_ims,
                       origin = "iso3c", destination = "region"),
    dest = countrycode(sourcevar = dest, custom_dict = dict_ims,
                       origin = "iso3c", destination = "region")
  ) %>%
  group_by(year0, orig, dest) %>%
  summarise_all(sum) %>%
  ungroup()
d
#> # A tibble: 216 × 9
#>    year0 orig   dest   sd_drop_neg sd_rev_neg mig_rate da_min_open da_min_closed
#>    <int> <chr>  <chr>        <int>      <int>    <dbl>       <dbl>         <dbl>
#>  1  1990 Africa Africa     4297155    7845806   5.47e6    6872677.      7728373.
#>  2  1990 Africa Asia        240464     258816   7.24e5     283708.       554047.
#>  3  1990 Africa Europe      555826     664496   1.91e6     830461.      2190967.
#>  4  1990 Africa Latin…        1505       2709   7.81e3       9043.        56747.
#>  5  1990 Africa North…      289058     301706   2.23e5     321650.       783334.
#>  6  1990 Africa Ocean…       21550      23570   6.59e4      30186.       165598.
#>  7  1990 Asia   Africa       94088     158903   2.00e5     102036.        93577.
#>  8  1990 Asia   Asia       3616112    8617460   1.44e7    6969956.     10337980.
#>  9  1990 Asia   Europe     1496141    2322839   5.48e6    2851352.      4214903.
#> 10  1990 Asia   Latin…       14316      14343   1.07e5      20177.       136270.
#> # ℹ 206 more rows
#> # ℹ 1 more variable: da_pb_closed <dbl>

# 2015-2020 pseudo-Bayesian estimates for plotting
pb <- d %>%
    filter(year0 == 2015) %>%
    mutate(flow = da_pb_closed/1e6) %>%
    select(orig, dest, flow)
pb
#> # A tibble: 36 × 3
#>    orig   dest                               flow
#>    <chr>  <chr>                             <dbl>
#>  1 Africa Africa                           8.69  
#>  2 Africa Asia                             0.896 
#>  3 Africa Europe                           3.31  
#>  4 Africa Latin America and the Caribbean  0.0361
#>  5 Africa Northern America                 1.59  
#>  6 Africa Oceania                          0.264 
#>  7 Asia   Africa                           0.907 
#>  8 Asia   Asia                            23.8   
#>  9 Asia   Europe                           9.14  
#> 10 Asia   Latin America and the Caribbean  0.233 
#> # ℹ 26 more rows
…
