Calculate counter-flow and net migration flow — counter • migest
…
#> 
#> Attaching package: 'dplyr'
#> The following objects are masked from 'package:stats':
#> 
#>     filter, lag
#> The following objects are masked from 'package:base':
#> 
#>     intersect, setdiff, setequal, union
library(tidyr)
d <- expand_grid(orig = r, dest = r, sex = c("female", "male")) %>%
  mutate(flow = sample(x = 1:100, size = 32))
d

#> # A tibble: 32 x 4
#>    orig  dest  sex     flow
#>    <chr> <chr> <chr>  <int>
#>  1 A     A     female    45
#>  2 A     A     male      23
#>  3 A     B     female    76
#>  4 A     B     male      63
#>  5 A     C     female    47
#>  6 A     C     male      31
#>  7 A     D     female    68
#>  8 A     D     male      73
#>  9 B     A     female    69
#> 10 B     A     male       5
#> # ... with 22 more rows

# use group_by to distinguish od tables
d %>%
  group_by(sex) %>%
  counter()

#> # A tibble: 24 x 8
#> # Groups:   sex [2]
#>    orig  dest  corridor pair  sex     flow counter_flow net_flow
#>    <chr> <chr> <chr>    <chr> <chr>  <int>        <int>    <int>
#>  1 A     B     A -> B   A - B female    76           69        7
#>  2 A     B     A -> B   A - B male      63            5       58
#>  3 A     C     A -> C   A - C female    47           43        4
#>  4 A     C     A -> C   A - C male      31           86      -55
#>  5 A     D     A -> D   A - D female    68           97      -29
#>  6 A     D     A -> D   A - D male      73            4       69
#>  7 B     A     B -> A   A - B female    69           76       -7
#>  8 B     A     B -> A   A - B male       5           63      -58
#>  9 B     C     B -> C   B - C female    77           84       -7
#> 10 B     C     B -> C   B - C male       2           91      -89
#> # ... with 14 more rows
…
