Summary indices of migration impact — index_impact • migest
…
velocity
Index of velocity, given in UN DESA (1983). From Bogue, Shryock, Jr. & Hoermann (1957) - measures size of migration compared to expected flows based on population size alone. Can go from 0 to infinity

    Examples

# single year
library(dplyr)
m <- korea_gravity %>%
  filter(year == 2020,
         orig != dest) %>%
  select(orig, dest, flow)
m
#> # A tibble: 272 × 3
#>    orig  dest                flow
#>    <chr> <chr>              <int>
#>  1 Seoul Busan              20990
#>  2 Seoul Daegu              15216
#>  3 Seoul Incheon            38409
#>  4 Seoul Gwangju            11232
#>  5 Seoul Daejeon            15116
#>  6 Seoul Ulsan               7062
#>  7 Seoul Sejong              5107
#>  8 Seoul Gyeonggi-do       266375
#>  9 Seoul Gangwon-do         20048
#> 10 Seoul Chungcheongbuk-do  14574
#> # … with 262 more rows
…
