Summary indices of migration intensity — index_intensity • migest
…
cmp
Crude migration probability from Bell et. al. (2002), sometimes known as crude migration intensity, e.g. Bernard (2017)

courgeau_k
Intensity measure of Courgeau (1973)

    Examples

# single year
library(dplyr)
m <- korea_gravity %>%
  filter(year == 2020,
         orig != dest)
m
#> # A tibble: 272 × 20
#>    orig  dest         year   flow dist_…¹ dist_…² dist_pw contig orig_…³ dest_…⁴
#>    <chr> <chr>       <int>  <int>   <dbl>   <dbl>   <dbl> <lgl>    <dbl>   <dbl>
#>  1 Seoul Busan        2020  20990   319.    294.    324.  FALSE     9.67   3.39 
#>  2 Seoul Daegu        2020  15216   241.    209.    236.  FALSE     9.67   2.42 
#>  3 Seoul Incheon      2020  38409    44.1     0      25.0 TRUE      9.67   2.94 
#>  4 Seoul Gwangju      2020  11232   266.    244.    265.  FALSE     9.67   1.45 
#>  5 Seoul Daejeon      2020  15116   139.    109.    138.  FALSE     9.67   1.46 
#>  6 Seoul Ulsan        2020   7062   300.    263.    307.  FALSE     9.67   1.14 
#>  7 Seoul Sejong       2020   5107   112.     79.6   117.  FALSE     9.67   0.356
#>  8 Seoul Gyeonggi-do  2020 266375    17.9     0      13.2 TRUE      9.67  13.4  
#>  9 Seoul Gangwon-do   2020  20048   116.     34.3   113.  FALSE     9.67   1.54 
#> 10 Seoul Chungcheon…  2020  14574   118.     57.4   108.  FALSE     9.67   1.60 
#> # … with 262 more rows, 10 more variables: orig_area <units>,
#> #   dest_area <units>, orig_gdp_pc <dbl>, orig_ginc_pc <dbl>,
#> #   orig_iinc_pc <dbl>, orig_pconsum_pc <dbl>, dest_gdp_pc <dbl>,
#> #   dest_ginc_pc <dbl>, dest_iinc_pc <dbl>, dest_pconsum_pc <dbl>, and
#> #   abbreviated variable names ¹​dist_cent, ²​dist_min, ³​orig_pop, ⁴​dest_pop
…
