Chord diagram for directional origin-destination data — mig_chord • migest
…
# use dictionary to get region to region flows
d <- f %>%
  mutate(
    orig = countrycode(
      sourcevar = orig, custom_dict = dict_ims,
      origin = "iso3c", destination = "region"),
    dest = countrycode(
      sourcevar = dest, custom_dict = dict_ims,
      origin = "iso3c", destination = "region")
  ) %>%
group_by(year0, orig, dest) %>%
summarise_all(sum) %>%
ungroup()
d
#> # A tibble: 216 × 9
#>    year0 orig   dest   sd_drop_neg sd_rev_neg mig_rate da_min_open da_min_closed
#>    <dbl> <chr>  <chr>        <dbl>      <dbl>    <dbl>       <dbl>         <dbl>
#>  1  1990 Africa Africa     4297155    7845712  4979307     6902972       7429916
#>  2  1990 Africa Asia        240464     258816   659002      287789        690446
#>  3  1990 Africa Europe      554285     662901  1734769      809487       1303377
#>  4  1990 Africa Latin…        1439       2624     7032        8452         12138
#>  5  1990 Africa North…      288992     301617   203364      318842        335302
#>  6  1990 Africa Ocean…       21541      23533    60019       27919         25460
#>  7  1990 Asia   Africa       94088     158903   182438      104503        318467
#>  8  1990 Asia   Asia       3616112    8617460 13154071     6839964       9534627
#>  9  1990 Asia   Europe     1495859    2322557  4987315     2855373       4465086
#> 10  1990 Asia   Latin…       14156      14183    97518       19285         44768
#> # … with 206 more rows, and 1 more variable: da_pb_closed <dbl>

# 2015-2020 pseudo-Bayesian estimates for plotting
pb <- d %>%
    filter(year0 == 2015) %>%
    mutate(flow = da_pb_closed/1e6) %>%
    select(orig, dest, flow)
pb
#> # A tibble: 36 × 3
#>    orig   dest                               flow
#>    <chr>  <chr>                             <dbl>
#>  1 Africa Africa                           8.46  
#>  2 Africa Asia                             0.984 
#>  3 Africa Europe                           2.72  
#>  4 Africa Latin America and the Caribbean  0.0207
#>  5 Africa Northern America                 1.13  
#>  6 Africa Oceania                          0.118 
#>  7 Asia   Africa                           0.895 
#>  8 Asia   Asia                            22.4   
#>  9 Asia   Europe                           7.83  
#> 10 Asia   Latin America and the Caribbean  0.215 
#> # … with 26 more rows
…
