Summary of bilateral flows, counter-flow and net migration flow — sum_bilat • migest
…
# using data frame
library(dplyr)
library(tidyr)
d <- expand_grid(orig = r, dest = r, sex = c("female", "male")) %>%
  mutate(flow = sample(x = 1:100, size = 32))
d
#> # A tibble: 32 × 4
#>    orig  dest  sex     flow
#>    <chr> <chr> <chr>  <int>
#>  1 A     A     female    15
#>  2 A     A     male      32
#>  3 A     B     female    84
#>  4 A     B     male      91
#>  5 A     C     female    65
#>  6 A     C     male      60
#>  7 A     D     female    25
#>  8 A     D     male      10
#>  9 B     A     female    43
#> 10 B     A     male      95
#> # ℹ 22 more rows

# orig-dest summary of sex-specific flows
d %>%
  group_by(sex) %>%
  sum_bilat()
#> # A tibble: 24 × 9
#> # Groups:   sex [2]
#>    orig  dest  corridor pair  sex     flow counter_flow net_flow interchange
#>    <chr> <chr> <chr>    <chr> <chr>  <int>        <int>    <int>       <int>
#>  1 A     B     A -> B   A - B female    84           43       41         127
#>  2 A     B     A -> B   A - B male      91           95       -4         186
#>  3 A     C     A -> C   A - C female    65           50       15         115
#>  4 A     C     A -> C   A - C male      60           37       23          97
#>  5 A     D     A -> D   A - D female    25           14       11          39
#>  6 A     D     A -> D   A - D male      10           67      -57          77
#>  7 B     A     B -> A   A - B female    43           84      -41         127
#>  8 B     A     B -> A   A - B male      95           91        4         186
#>  9 B     C     B -> C   B - C female    90           19       71         109
#> 10 B     C     B -> C   B - C male      62           78      -16         140
#> # ℹ 14 more rows

# use group_by to distinguish orig-dest tables
d %>%
  group_by(sex) %>%
  sum_bilat()
#> # A tibble: 24 × 9
#> # Groups:   sex [2]
#>    orig  dest  corridor pair  sex     flow counter_flow net_flow interchange
#>    <chr> <chr> <chr>    <chr> <chr>  <int>        <int>    <int>       <int>
#>  1 A     B     A -> B   A - B female    84           43       41         127
#>  2 A     B     A -> B   A - B male      91           95       -4         186
#>  3 A     C     A -> C   A - C female    65           50       15         115
#>  4 A     C     A -> C   A - C male      60           37       23          97
#>  5 A     D     A -> D   A - D female    25           14       11          39
#>  6 A     D     A -> D   A - D male      10           67      -57          77
#>  7 B     A     B -> A   A - B female    43           84      -41         127
#>  8 B     A     B -> A   A - B male      95           91        4         186
#>  9 B     C     B -> C   B - C female    90           19       71         109
#> 10 B     C     B -> C   B - C male      62           78      -16         140
#> # ℹ 14 more rows
…
