Sum and lump together small flows into a "other" category — sum_lump • migest
…
# return a matrix (only possible when input is a matrix and
# complete = TRUE) with small values replaced by zeros
sum_lump(m, threshold = 50, complete = TRUE)
#>        dest
#> orig      A   B   C   D other
#>   A       0 100   0   0     0
#>   B      50   0  50   0     0
#>   C       0   0   0   0     0
#>   D       0   0   0   0     0
#>   other   0   0   0   0   200

# return a data frame with small values replaced with zero
sum_lump(m, threshold = 80, complete = TRUE, return_matrix = FALSE)
#> # A tibble: 25 × 3
#>    orig  dest   flow
#>    <chr> <chr> <dbl>
#>  1 A     A         0
#>  2 A     B       100
#>  3 A     C         0
#>  4 A     D         0
#>  5 A     other     0
#>  6 B     A         0
#>  7 B     B         0
#>  8 B     C         0
#>  9 B     D         0
#> 10 B     other     0
#> # ℹ 15 more rows
…
