Calculate turnover and total in-, out- and net-migration totals from an origin-destination migration flow matrix or data frame. — sum_turnover • migest
…
# turnover for single period
f %>% 
  filter(year0 == 1990) %>%
  sum_turnover(flow_col = "da_pb_closed", type = "international")

#> # A tibble: 197 x 5
#>    country     imm    emi    turn     net
#>    <chr>     <dbl>  <dbl>   <dbl>   <dbl>
#>  1 BDI       61630 381611  443241 -319981
#>  2 COM        9009  12011   21020   -3002
#>  3 DJI       10949  55945   66894  -44996
#>  4 ERI       14633 329383  344016 -314750
#>  5 ETH     1635513 177334 1812847 1458179
#>  6 KEN      306517  84833  391350  221684
#>  7 MDG        9706  19159   28865   -9453
#>  8 MWI      112416 974278 1086694 -861862
#>  9 MUS       16862  22475   39337   -5613
#> 10 MYT       13763   3021   16784   10742
#> # ... with 187 more rows

# turnover for all periods using group_by
f %>% 
  group_by(year0) %>%
  sum_turnover(flow_col = "da_pb_closed", type = "international")

#> Adding missing grouping variables: `year0`
#> # A tibble: 1,188 x 6
#> # Groups:   year0 [6]
#>    year0 country     imm    emi    turn     net
#>    <dbl> <chr>     <dbl>  <dbl>   <dbl>   <dbl>
#>  1  1990 BDI       61630 381611  443241 -319981
#>  2  1990 COM        9009  12011   21020   -3002
#>  3  1990 DJI       10949  55945   66894  -44996
#>  4  1990 ERI       14633 329383  344016 -314750
#>  5  1990 ETH     1635513 177334 1812847 1458179
#>  6  1990 KEN      306517  84833  391350  221684
#>  7  1990 MDG        9706  19159   28865   -9453
#>  8  1990 MWI      112416 974278 1086694 -861862
#>  9  1990 MUS       16862  22475   39337   -5613
#> 10  1990 MYT       13763   3021   16784   10742
#> # ... with 1,178 more rows
…
