Sum bilateral data to include aggregate bilateral totals for origin and destination meta areas — sum_expand • migest
…
# requires a vector of origin and destination areas
a <- rep(LETTERS[1:4], times = c(2,3,4,2))
a
#>  [1] "A" "A" "B" "B" "B" "C" "C" "C" "C" "D" "D"
sum_expand(m = m, orig_area = a, dest_area = a)
#> # A tibble: 225 × 3
#>    orig  dest   flow
#>    <chr> <chr> <int>
#>  1 A     A         4
#>  2 A     A1        2
#>  3 A     A2        2
#>  4 A     B        30
#>  5 A     B1       10
#>  6 A     B2       10
#>  7 A     B3       10
#>  8 A     C        72
#>  9 A     C1       18
#> 10 A     C2       18
#> # … with 215 more rows

# place area sums after regions
sum_expand(m = m, orig_area = a, dest_area = a, area_first = FALSE)
#> # A tibble: 225 × 3
#>    orig  dest   flow
#>    <chr> <chr> <int>
#>  1 A1    A1        1
#>  2 A1    A2        1
#>  3 A1    A         2
#>  4 A1    B1        5
#>  5 A1    B2        5
#>  6 A1    B3        5
#>  7 A1    B        15
#>  8 A1    C1        9
#>  9 A1    C2        9
#> 10 A1    C3        9
#> # … with 215 more rows

##
## from large data frame
##
# \dontrun{
library(tidyverse)
library(countrycode)

# download Abel and Cohen (2019) estimates
f <- read_csv("https://ndownloader.figshare.com/files/38016762", show_col_types = FALSE)
f
#> # A tibble: 307,833 × 9
#>    year0 orig  dest  sd_drop_neg sd_rev_neg mig_rate da_min_open da_mi…¹ da_pb…²
#>    <dbl> <chr> <chr>       <dbl>      <dbl>    <dbl>       <dbl>   <dbl>   <dbl>
#>  1  1990 BDI   BDI             0          0      0          0         0     0   
#>  2  1990 COM   BDI             0          0      0          0         0     0   
#>  3  1990 DJI   BDI             0          0      0          0         0     0   
#>  4  1990 ERI   BDI             0          0      0          0         0    38.3 
#>  5  1990 ETH   BDI             0          0      0          0         0     0.82
#>  6  1990 KEN   BDI            30         30     75.7       51.3     207.  248.  
#>  7  1990 MDG   BDI             0          0      0          0.03      0     0   
#>  8  1990 MWI   BDI             0          0      0          0         0    98.8 
#>  9  1990 MUS   BDI             0          0      0          0.06      0     0   
#> 10  1990 MYT   BDI             0          0      0          0         0     0   
#> # … with 307,823 more rows, and abbreviated variable names ¹​da_min_closed,
#> #   ²​da_pb_closed

# 1990-1995 flow estimates
f %>%
  filter(year0 == 1990) %>%
  mutate(
    orig_area = countrycode(sourcevar = orig, custom_dict = dict_ims,
                            origin = "iso3c", destination = "region"),
    dest_area = countrycode(sourcevar = dest, custom_dict = dict_ims,
                            origin = "iso3c", destination = "region")
  ) %>%
  sum_expand(flow_col = "da_pb_closed", return_matrix = FALSE)
#> # A tibble: 53,361 × 3
#>    orig   dest        flow
#>    <chr>  <chr>      <dbl>
#>  1 Africa Africa 10022609.
#>  2 Africa BDI       66366.
#>  3 Africa COM        4363.
#>  4 Africa DJI       11309.
#>  5 Africa ERI       18427.
#>  6 Africa ETH     1557343.
#>  7 Africa KEN      154459.
#>  8 Africa MDG        3261.
#>  9 Africa MWI      131126.
#> 10 Africa MUS        1412.
#> # … with 53,351 more rows

# by group (period)
f %>%
  mutate(
    orig_area = countrycode(sourcevar = orig, custom_dict = dict_ims,
                            origin = "iso3c", destination = "region"),
    dest_area = countrycode(sourcevar = dest, custom_dict = dict_ims,
                            origin = "iso3c", destination = "region")
  ) %>%
  group_by(year0) %>%
  sum_expand(flow_col = "da_pb_closed", return_matrix = FALSE)
#> # A tibble: 324,357 × 4
#> # Groups:   year0 [6]
#>    year0 orig   dest        flow
#>    <dbl> <chr>  <chr>      <dbl>
#>  1  1990 Africa Africa 10022609.
#>  2  1995 Africa Africa  8212896.
#>  3  2000 Africa Africa  6802390.
#>  4  2005 Africa Africa  7433759 
#>  5  2010 Africa Africa  9345723.
#>  6  2015 Africa Africa  8691610.
#>  7  1990 Africa BDI       66366.
#>  8  1995 Africa BDI       66637.
#>  9  2000 Africa BDI      157499.
#> 10  2005 Africa BDI      395394.
#> # … with 324,347 more rows
…
